{
   "$id": "/eval-input.json",
   "title": "json schema for evaluation input",
   "$schema": "https://json-schema.org/draft/2020-12/schema",
   "type": "object",
   "properties": {
      "$schema": {},
      "facts": {
         "$ref": "./commons.json#/$defs/inputFacts"
      },
      "profile": {
         "$ref": "./commons.json#/$defs/inputProfile"
      },
      "options": {
         "$ref": "./commons.json#/$defs/inputOptions"
      }
   },
   "required": ["facts"],
   "unevaluatedProperties": false
}
