{
   "title": "json schema for predicates",
   "$id": "/model-predicate.json",
   "$schema": "https://json-schema.org/draft/2020-12/schema",
   "type": "object",
   "properties": {
      "$schema": {},
      "desc": {
         "$ref": "./commons.json#/$defs/desc"
      },
      "scope": {
         "$ref": "./commons.json#/$defs/scope"
      },
      "criteria": {
         "$ref": "./criteria.json#/$defs/criteria"
      },
      "refs": {
         "$ref": "./commons.json#/$defs/refs"
      }
   },
   "required": ["criteria"],
   "unevaluatedProperties": false
}
