{
   "$id": "/mode-type.json",
   "title": "json schema for custom types",
   "$schema": "https://json-schema.org/draft/2020-12/schema",
   "type": "object",
   "properties": {
      "$schema": {},
      "type": {
         "$ref": "./commons.json#/$defs/elementType"
      },
      "scope": {
         "$ref": "./commons.json#/$defs/scope"
      },
      "desc": {
         "$ref": "./commons.json#/$defs/desc"
      },
      "dataspec": {
         "$ref": "./commons.json#/$defs/dataspec"
      }
   },
   "required": ["type"],
   "unevaluatedProperties": false
}
