{
	"$id": "/script.json",
	"title": "json schema for script (nothing specific so far)",
	"$schema": "https://json-schema.org/draft/2020-12/schema",
	"type": "object",
	"properties": {
		"$schema": {}
	},
	"required": [],
	"unevaluatedProperties": false
}