{
   "$id": "/model-generator.json",
   "title": "json schema for generators",
   "$schema": "https://json-schema.org/draft/2020-12/schema",
   "oneOf": [
      {
         "type": "object",
         "properties": {
            "type": { "const": "Expression" },
            "name": {
               "type": "string",
               "minLength": 1
            },
            "expr": {
               "type": "string",
               "minLength": 1
            }
         },
         "required": ["type", "expr"]
      },
      {
         "type": "object",
         "properties": {
            "type": { "const": "Scoring" },
            "claims": {
               "type": "array",
               "items": {
                  "type": "object",
                  "properties": {
                     "id": {
                        "$ref": "./commons.json#/$defs/id"
                     },
                     "name": {
                        "$ref": "./commons.json#/$defs/name"
                     },
                     "desc": {
                        "$ref": "./commons.json#/$defs/desc"
                     },
                     "precondition": {
                        "$ref": "./criteria.json#/$defs/criteria"
                     },
                     "exclusion": {
                        "$ref": "./criteria.json#/$defs/criteria"
                     },
                     "refs": {
                        "$ref": "./commons.json#/$defs/refs"
                     },
                     "rules": {
                        "type": "array",
                        "items": {
                           "type": "object",
                           "properties": {
                              "id": {
                                 "$ref": "./commons.json#/$defs/id"
                              },
                              "name": {
                                 "$ref": "./commons.json#/$defs/name"
                              },
                              "desc": {
                                 "$ref": "./commons.json#/$defs/desc"
                              },
                              "refs": {
                                 "$ref": "./commons.json#/$defs/refs"
                              },
                              "criteria": {
                                 "$ref": "./criteria.json#/$defs/criteria"
                              },
                              "points": {
                                 "type": "number"
                              }
                           },
                           "required": ["criteria", "points"]
                        }
                     }
                  },
                  "required": ["name"]
               }
            },
            "results": {
               "type": "array",
               "items": {
                  "type": "object",
                  "properties": {
                     "id": {
                        "$ref": "./commons.json#/$defs/id"
                     },
                     "range": {
                        "type": "object",
                        "properties": {
                           "min": {
                              "type": "number"
                           },
                           "max": {
                              "type": "number"
                           }
                        },
                        "required": ["min", "max"],
                        "additionalProperties": false
                     },
                     "value": {
                        "oneOf": [{ "type": "string" }, { "type": "number" }, { "type": "boolean" }]
                     },
                     "cf": {
                        "type": "number"
                     }
                  },
                  "required": ["range", "value"]
               }
            },
            "questions": {
               "type": "array",
               "uniqueItems": true,
               "items": {
                  "type": "object",
                  "properties": {
                     "id": {
                        "$ref": "./commons.json#/$defs/id"
                     },
                     "range": {
                        "type": "object",
                        "properties": {
                           "min": {
                              "type": "number"
                           },
                           "max": {
                              "type": "number"
                           }
                        },
                        "required": ["min", "max"],
                        "unevaluatedProperties": false
                     },
                     "elemId": {
                        "$ref": "./commons.json#/$defs/id"
                     },
                     "cf": {
                        "type": "number"
                     }
                  },
                  "required": ["elemId", "range"]
               }
            }
         },
         "required": ["type", "claims"]
      },
      {
         "type": "object",
         "properties": {
            "type": { "const": "Script" },
            "name": {
               "type": "string",
               "minLength": 1
            },
            "params": {
               "type": "object",
               "patternProperties": {
                  "^[A-Za-z][A-Za-z0-9_\\\\-]*$": {}
               },
               "unevaluatedProperties": false
            }
         },
         "required": ["type", "name"]
      }
   ],
   "type": "object",
   "properties": {
      "$schema": {},
      "desc": {
         "$ref": "./commons.json#/$defs/desc"
      },
      "predicates": {
         "$ref": "./criteria.json#/$defs/predicates"
      },
      "precondition": {
         "$ref": "./criteria.json#/$defs/criteria"
      },
      "exclusion": {
         "$ref": "./criteria.json#/$defs/criteria"
      },
      "refs": {
         "$ref": "./commons.json#/$defs/refs"
      }
   },
   "unevaluatedProperties": true
}
