{
   "title": "json schema for codesystems",
   "$id": "/model-codesystem.json",
   "$schema": "https://json-schema.org/draft/2020-12/schema",
   "type": "object",
   "properties": {
      "$schema": {},
      "name": {
         "$ref": "./commons.json#/$defs/name"
      },
      "desc": {
         "$ref": "./commons.json#/$defs/desc"
      },
      "scope": {
         "$ref": "./commons.json#/$defs/scope"
      },
      "extends": {
         "$ref": "./commons.json#/$defs/id"
      },
      "regex": {
         "type": "string",
         "format": "regex"
      },
      "codes": {
         "type": "object",
         "patternProperties": {
            "^[A-Za-z][A-Za-z0-9_]*$": {
               "type": "object",
               "properties": {
                  "name": {
                     "$ref": "./commons.json#/$defs/name"
                  },
                  "synonyms": {
                     "$ref": "./commons.json#/$defs/synonyms"
                  },
                  "desc": {
                     "$ref": "./commons.json#/$defs/desc"
                  },
                  "refs": {
                     "$ref": "./commons.json#/$defs/refs"
                  }
               },
               "required": ["name"],
               "unevaluatedProperties": false
            }
         },
         "minProperties": 1,
         "unevaluatedProperties": false
      },
      "targets": {
         "type": "array",
         "uniqueItems": true,
         "minItems": 1,
         "items": {
            "type": "string",
            "enum": ["type", "unit", "class", "element", "taglist", "predicate", "codesystem"]
         }
      },
      "refs": {
         "$ref": "./commons.json#/$defs/refs"
      }
   },
   "required": ["name", "targets"],
   "unevaluatedProperties": false
}
