{
   "$id": "/model-type-Datetime.json",
   "title": "json schema for 'Datetime' type data specification",
   "$schema": "https://json-schema.org/draft/2020-12/schema",
   "type": "object",
   "properties": {
      "$schema": {},
      "min": {
         "$ref": "./commons.json#/$defs/datetime"
      },
      "max": {
         "$ref": "./commons.json#/$defs/datetime"
      },
      "precision": {
         "type": "string",
         "enum": ["month", "day", "hour", "min", "sec", "ms"]
      },
      "default": {
         "$ref": "./commons.json#/$defs/datetime"
      }
   },
   "unevaluatedProperties": false
}
