{
   "$id": "/model-type-Code.json",
   "title": "json schema for 'Code' type data specification",
   "$schema": "https://json-schema.org/draft/2020-12/schema",
   "type": "object",
   "properties": {
      "$schema": {},
      "codesystem": {
         "$ref": "./commons.json#/$defs/id"
      },
      "codes": {
         "$ref": "./commons.json#/$defs/codeList"
      },
      "default": {
         "$ref": "./commons.json#/$defs/code"
      }
   },
   "minProperties": 1,
   "unevaluatedProperties": false
}
